index,Name,Partei,Geschlecht,Datum,Position,Emotion
51,Bartsch,Linke,M,07.07.2023,Ende,happy
178,Bartsch,Linke,M,07.07.2023,Start,neutral
209,Bartsch,Linke,M,07.07.2023,Start,angry
228,Bartsch,Linke,M,07.07.2023,Start,neutral
285,Bartsch,Linke,M,12.05.2023,Ende,sad
457,Bartsch,Linke,M,12.05.2023,Start,neutral
501,Bartsch,Linke,M,15.06.2023,Ende,sad
563,Bartsch,Linke,M,15.06.2023,Ende,neutral
1116,Bartsch,Linke,M,30.03.2023,Ende,neutral
1209,Bartsch,Linke,M,30.03.2023,Start,angry
1304,Chrupalla,Afd,M,02.03.2023,Ende,happy
1311,Chrupalla,Afd,M,02.03.2023,Ende,sad
1315,Chrupalla,Afd,M,02.03.2023,Ende,neutral
1441,Chrupalla,Afd,M,02.03.2023,Start,sad
1697,Chrupalla,Afd,M,10.05.2023,Start,happy
1726,Chrupalla,Afd,M,10.05.2023,Start,neutral
2114,Chrupalla,Afd,M,16.03.2023,Ende,happy
2284,Chrupalla,Afd,M,30.03.2023,Ende,happy
2399,Chrupalla,Afd,M,30.03.2023,Start,neutral
2482,Chrupalla,Afd,M,30.03.2023,Start,neutral
2513,Droege,Gruenen,W,08.02.2023,Ende,neutral
2826,Droege,Gruenen,W,12.05.2023,Ende,sad
2907,Droege,Gruenen,W,12.05.2023,Start,happy
2951,Droege,Gruenen,W,12.05.2023,Start,happy
3069,Droege,Gruenen,W,14.12.2022,Ende,sad
3359,Droege,Gruenen,W,16.03.2023,Ende,angry
3365,Droege,Gruenen,W,16.03.2023,Ende,angry
3419,Droege,Gruenen,W,16.03.2023,Start,angry
3616,Droege,Gruenen,W,27.04.2023,Ende,neutral
3706,Droege,Gruenen,W,27.04.2023,Start,angry
3939,Duerr,Fdp,M,02.03.2023,Start,sad
3948,Duerr,Fdp,M,02.03.2023,Start,sad
3959,Duerr,Fdp,M,02.03.2023,Start,sad
4068,Duerr,Fdp,M,12.05.2023,Ende,fear
4190,Duerr,Fdp,M,12.05.2023,Start,fear
4319,Duerr,Fdp,M,14.12.2022,Ende,neutral
4439,Duerr,Fdp,M,14.12.2022,Start,neutral
4446,Duerr,Fdp,M,14.12.2022,Start,neutral
4485,Duerr,Fdp,M,14.12.2022,Start,sad
4528,Duerr,Fdp,M,16.03.2023,Ende,angry
5088,Haselmann,Gruenen,W,02.03.2023,Ende,fear
5161,Haselmann,Gruenen,W,02.03.2023,Start,fear
5255,Haselmann,Gruenen,W,16.06.2023,Ende,fear
5541,Haselmann,Gruenen,W,17.03.2023,Ende,fear
5704,Haselmann,Gruenen,W,17.03.2023,Start,fear
5775,Haselmann,Gruenen,W,22.06.2023,Ende,angry
5940,Haselmann,Gruenen,W,22.06.2023,Start,angry
6098,Haselmann,Gruenen,W,25.11.2022,Ende,fear
6130,Haselmann,Gruenen,W,25.11.2022,Start,fear
6236,Haselmann,Gruenen,W,25.11.2022,Start,fear
6343,Merz,Cdu,M,05.07.2023,Ende,neutral
6392,Merz,Cdu,M,05.07.2023,Start,sad
6413,Merz,Cdu,M,05.07.2023,Start,happy
6643,Merz,Cdu,M,07.07.2023,Start,surprise
6716,Merz,Cdu,M,07.07.2023,Start,angry
6726,Merz,Cdu,M,07.07.2023,Start,fear
6842,Merz,Cdu,M,12.05.2023,Ende,happy
6850,Merz,Cdu,M,12.05.2023,Ende,sad
6990,Merz,Cdu,M,12.05.2023,Start,surprise
7432,Merz,Cdu,M,22.06.2023,Start,sad
7706,Mohamed Ali,Linke,W,08.02.2023,Start,fear
7833,Mohamed Ali,Linke,W,16.03.2023,Ende,sad
7929,Mohamed Ali,Linke,W,16.03.2023,Start,sad
8046,Mohamed Ali,Linke,W,24.05.2023,Ende,angry
8069,Mohamed Ali,Linke,W,24.05.2023,Ende,angry
8227,Mohamed Ali,Linke,W,24.05.2023,Start,fear
8247,Mohamed Ali,Linke,W,24.05.2023,Start,fear
8258,Mohamed Ali,Linke,W,26.01.2023,Ende,angry
8278,Mohamed Ali,Linke,W,26.01.2023,Ende,fear
8428,Mohamed Ali,Linke,W,26.01.2023,Start,fear
8896,Muetzenich,Spd,M,02.03.2023,Start,angry
9084,Muetzenich,Spd,M,17.03.2023,Ende,sad
9100,Muetzenich,Spd,M,17.03.2023,Ende,neutral
9251,Muetzenich,Spd,M,22.06.2023,Ende,neutral
9302,Muetzenich,Spd,M,22.06.2023,Ende,neutral
9527,Muetzenich,Spd,M,23.11.2022,Ende,neutral
9696,Muetzenich,Spd,M,23.11.2022,Start,angry
9843,Muetzenich,Spd,M,25.01.2023,Ende,sad
9890,Muetzenich,Spd,M,25.01.2023,Start,angry
9997,Muetzenich,Spd,M,25.01.2023,Start,neutral
10065,Weidel,Afd,W,07.07.2023,Ende,happy
10114,Weidel,Afd,W,07.07.2023,Ende,sad
10135,Weidel,Afd,W,07.07.2023,Start,sad
10432,Weidel,Afd,W,07.09.2022,Start,neutral
10449,Weidel,Afd,W,07.09.2022,Start,sad
10469,Weidel,Afd,W,07.09.2022,Start,sad
10548,Weidel,Afd,W,08.02.2023,Ende,happy
10646,Weidel,Afd,W,08.02.2023,Start,neutral
10664,Weidel,Afd,W,08.02.2023,Start,sad
10821,Weidel,Afd,W,22.06.2023,Ende,neutral
